module gitlab.com/rigel314/gw2-enemycount

go 1.23.2

require (
	github.com/gorilla/websocket v1.5.3
	github.com/shirou/gopsutil/v3 v3.24.5
	golang.org/x/term v0.28.0
)

require (
	github.com/go-ole/go-ole v1.3.0 // indirect
	github.com/lufia/plan9stats v0.0.0-20240909124753-873cd0166683 // indirect
	github.com/power-devops/perfstat v0.0.0-20240221224432-82ca36839d55 // indirect
	github.com/shoenig/go-m1cpu v0.1.6 // indirect
	github.com/tklauser/go-sysconf v0.3.14 // indirect
	github.com/tklauser/numcpus v0.9.0 // indirect
	github.com/yusufpapurcu/wmi v1.2.4 // indirect
	golang.org/x/sys v0.29.0 // indirect
)
